{
    "Name" : "Klocwork",
    "Version" : "1.2",
    "CompatVersion" : "1.2",
    "Vendor" : "Emenda Nordic AB",
    "Copyright" : "(C) 2018 Emenda Nordic AB",
    "License" : [ "Commercial Usage",
                  "",
                  "Licensees holding valid Qt Commercial licenses may use this plugin in accordance with the Qt Commercial License Agreement provided with the Software or, alternatively, in accordance with the terms contained in a written agreement between you and The Qt Company.",
                  "",
                  "GNU Lesser General Public License Usage",
                  "",
                  "Alternatively, this plugin may be used under the terms of the GNU Lesser General Public License version 2.1 or version 3 as published by the Free Software Foundation.  Please review the following information to ensure the GNU Lesser General Public License requirements will be met: https://www.gnu.org/licenses/lgpl.html and http://www.gnu.org/licenses/old-licenses/lgpl-2.1.html."
    ],
    "Category" : "Code Analyzer",
    "Description" : "The Klocwork plugin allows you to perform analyses of your code using the Klocwork Static Code Analyser.",
    "Url" : "http://www.emenda.com",
    "Dependencies" : [
        { "Name" : "Core", "Version" : "4.6.0" },
        { "Name" : "TextEditor", "Version" : "4.6.0" },
        { "Name" : "ProjectExplorer", "Version" : "4.6.0" }
    ]
}
